…
```r
# Data wrangling ==============

# arrange data with respect to date and time

df2 <- df2 %>% 
  arrange(started_at)

df2
```

```
## # A tibble: 3,489,748 x 13
##    ride_id          rideable_type started_at          ended_at           
##    <chr>            <fct>         <dttm>              <dttm>             
##  1 5DB63F4E4EB6A9CF docked_bike   2020-04-01 00:00:30 2020-04-01 00:23:03
##  2 1FD159E93F7BAFA1 docked_bike   2020-04-01 00:02:35 2020-04-01 00:10:45
##  3 6D93A270684EC452 docked_bike   2020-04-01 00:02:41 2020-04-01 00:24:20
##  4 091D47E4F0FC5022 docked_bike   2020-04-01 00:06:44 2020-04-01 00:14:01
##  5 07F785C9DDA3404C docked_bike   2020-04-01 00:11:18 2020-04-01 00:11:51
##  6 643593E85E46A45C docked_bike   2020-04-01 00:13:36 2020-04-01 00:18:59
##  7 782CEA3C6968D2A6 docked_bike   2020-04-01 00:13:41 2020-04-01 00:19:09
##  8 432C76DCFB84366A docked_bike   2020-04-01 00:21:54 2020-04-01 00:27:20
##  9 7912522A5308E3DA docked_bike   2020-04-01 00:23:52 2020-04-01 00:34:42
## 10 545019BF3EF4B419 docked_bike   2020-04-01 00:39:21 2020-04-01 00:43:19
## # ... with 3,489,738 more rows, and 9 more variables: start_station_name <chr>,
## #   start_station_id <chr>, end_station_name <chr>, end_station_id <chr>,
## #   start_lat <dbl>, start_lng <dbl>, end_lat <dbl>, end_lng <dbl>,
## #   member_casual <fct>
```
…
